{
  "query" : [
      {
        "type" : "group",
        "cond" : "or",
        "query" : [
          {"type" : "eq", "cond" : "or", "field" : "q.id", "value" : 1},
          {"type" : "eq", "cond" : "or", "field" : "q.id", "value" : 2}
        ]
      },
      {"type" : "eq", "cond" : "and", "field" : "q.name", "value" : "Test" }
  ]
}